<svg width="65" height="38" viewBox="0 0 65 38" fill="none" xmlns="http://www.w3.org/2000/svg">
<path d="M12.1739 0.324219H8.52441V25.8746H12.1739V0.324219Z" fill="#363A8A"/>
<path d="M33.6858 22.6993H21.4835V0.324219H17.834V25.8746H33.6858V22.6993Z" fill="#363A8A"/>
<path d="M54.586 24.9839C56.1981 24.2546 56.9138 22.3566 56.1845 20.7444C55.4553 19.1323 53.5572 18.4166 51.9451 19.1459C50.333 19.8751 49.6173 21.7732 50.3466 23.3853C51.0758 24.9974 52.9739 25.7131 54.586 24.9839Z" fill="#363A8A"/>
<path d="M43.817 26.3599C45.3014 26.0907 46.2864 24.6692 46.0172 23.1849C45.748 21.7005 44.3265 20.7155 42.8421 20.9847C41.3578 21.2539 40.3728 22.6754 40.642 24.1598C40.9112 25.6441 42.3327 26.6291 43.817 26.3599Z" fill="#363A8A"/>
<path d="M38.0193 19.7026C38.8876 18.6534 38.7409 17.099 37.6917 16.2307C36.6425 15.3624 35.0881 15.5091 34.2199 16.5583C33.3516 17.6075 33.4982 19.1619 34.5474 20.0302C35.5966 20.8984 37.151 20.7518 38.0193 19.7026Z" fill="#363A8A"/>
<path d="M35.317 12.1658C36.5501 12.1658 37.5496 11.1663 37.5496 9.93326C37.5496 8.70024 36.5501 7.70068 35.317 7.70068C34.084 7.70068 33.0845 8.70024 33.0845 9.93326C33.0845 11.1663 34.084 12.1658 35.317 12.1658Z" fill="#363A8A"/>
<path d="M40.4932 5.31901C41.3589 4.9274 41.7433 3.90814 41.3517 3.04243C40.9601 2.17671 39.9408 1.79238 39.0751 2.18399C38.2094 2.5756 37.825 3.59486 38.2166 4.46058C38.6083 5.32629 39.6275 5.71062 40.4932 5.31901Z" fill="#363A8A"/>
<path d="M46.7073 2.87677C47.4457 2.76489 47.9536 2.07558 47.8418 1.33715C47.7299 0.598723 47.0406 0.0908083 46.3021 0.202691C45.5637 0.314574 45.0558 1.00389 45.1677 1.74231C45.2796 2.48074 45.9689 2.98866 46.7073 2.87677Z" fill="#363A8A"/>
<path d="M51.6525 3.21695C51.8501 3.29018 52.0649 3.30322 52.2699 3.25444C52.4749 3.20565 52.6608 3.09722 52.8042 2.94284C52.9475 2.78846 53.042 2.59505 53.0755 2.38705C53.109 2.17904 53.0802 1.96576 52.9926 1.77415C52.905 1.58253 52.7625 1.42117 52.5833 1.31045C52.404 1.19972 52.196 1.1446 51.9854 1.15203C51.7749 1.15947 51.5712 1.22913 51.4002 1.35223C51.2292 1.47532 51.0986 1.64633 51.0247 1.84364C50.9755 1.97502 50.9527 2.11482 50.9577 2.25501C50.9626 2.39521 50.9952 2.53305 51.0535 2.66063C51.1119 2.78821 51.1948 2.90303 51.2976 2.99849C51.4004 3.09396 51.521 3.1682 51.6525 3.21695Z" fill="#363A8A"/>
<path d="M55.2699 6.22499C55.4195 6.28096 55.5822 6.29137 55.7377 6.25491C55.8931 6.21845 56.0343 6.13676 56.1434 6.02014C56.2524 5.90351 56.3245 5.7572 56.3505 5.59965C56.3764 5.44211 56.3551 5.2804 56.2893 5.13494C56.2234 4.98949 56.116 4.8668 55.9804 4.78237C55.8449 4.69794 55.6874 4.65555 55.5278 4.66055C55.3682 4.66556 55.2137 4.71773 55.0837 4.81049C54.9538 4.90325 54.8542 5.03243 54.7976 5.18173C54.7599 5.28122 54.7422 5.38719 54.7455 5.49354C54.7488 5.59989 54.7732 5.70454 54.817 5.80147C54.8609 5.89841 54.9235 5.98572 55.0012 6.0584C55.079 6.13108 55.1703 6.18769 55.2699 6.22499Z" fill="#363A8A"/>
<path d="M3.07098 34.2809C2.93115 34.0609 2.73456 33.8826 2.50193 33.765C2.26389 33.6449 2.00028 33.5844 1.73371 33.5885C1.42296 33.5842 1.11641 33.6607 0.844093 33.8105C0.582714 33.9587 0.368402 34.1777 0.225725 34.4421C0.0774235 34.7275 0 35.0443 0 35.3659C0 35.6875 0.0774235 36.0043 0.225725 36.2896C0.370708 36.555 0.587692 36.7739 0.851681 36.9213C1.12301 37.074 1.43 37.1518 1.7413 37.147C2.01608 37.151 2.28744 37.0858 2.53038 36.9573C2.76611 36.8337 2.96305 36.6472 3.09943 36.4186V37.111H3.55088V32.1792H3.07098V34.2809ZM2.90785 36.0753C2.80192 36.2768 2.6407 36.444 2.44312 36.5571C2.2415 36.6715 2.01291 36.7298 1.78113 36.7259C1.54749 36.7303 1.31694 36.672 1.11344 36.5571C0.915865 36.444 0.754651 36.2768 0.648719 36.0753C0.536466 35.855 0.477946 35.6112 0.477946 35.364C0.477946 35.1167 0.536466 34.873 0.648719 34.6527C0.754129 34.4508 0.91547 34.2835 1.11344 34.1709C1.31679 34.0554 1.54732 33.9965 1.78113 34.0002C2.01308 33.997 2.24165 34.0559 2.44312 34.1709C2.6411 34.2835 2.80244 34.4508 2.90785 34.6527C3.0201 34.873 3.07862 35.1167 3.07862 35.364C3.07862 35.6112 3.0201 35.855 2.90785 36.0753Z" fill="#363A8A"/>
<path d="M7.20792 33.8145C6.92731 33.6663 6.61477 33.5889 6.29744 33.5889C5.98011 33.5889 5.66757 33.6663 5.38696 33.8145C5.11838 33.9605 4.89523 34.1778 4.74204 34.4423C4.58897 34.7241 4.50879 35.0397 4.50879 35.3604C4.50879 35.6811 4.58897 35.9967 4.74204 36.2785C4.89304 36.5426 5.11345 36.7604 5.37937 36.9082C5.65923 37.0588 5.97206 37.1376 6.28985 37.1376C6.60765 37.1376 6.92048 37.0588 7.20033 36.9082C7.46636 36.7595 7.68623 36.5403 7.83577 36.2747C7.98655 35.9922 8.06542 35.6768 8.06542 35.3566C8.06542 35.0364 7.98655 34.7211 7.83577 34.4385C7.68715 34.1773 7.47008 33.9615 7.20792 33.8145ZM7.42795 36.0755C7.32271 36.2769 7.16214 36.4441 6.96513 36.5573C6.76084 36.6664 6.53282 36.7235 6.30124 36.7235C6.06965 36.7235 5.84163 36.6664 5.63734 36.5573C5.44022 36.4436 5.27915 36.2766 5.17262 36.0755C5.06168 35.8548 5.00391 35.6112 5.00391 35.3642C5.00391 35.1172 5.06168 34.8736 5.17262 34.6529C5.27855 34.4514 5.43976 34.2842 5.63734 34.1711C5.84239 34.059 6.07231 34.0003 6.30598 34.0003C6.53965 34.0003 6.76957 34.059 6.97461 34.1711C7.17202 34.2838 7.33272 34.4511 7.43744 34.6529C7.54597 34.8743 7.6024 35.1176 7.6024 35.3642C7.6024 35.6108 7.54597 35.8541 7.43744 36.0755H7.42795Z" fill="#363A8A"/>
<path d="M13.4676 33.8105C13.1945 33.661 12.8874 33.5845 12.5761 33.5885C12.3095 33.5844 12.0459 33.6449 11.8078 33.7649C11.5752 33.8826 11.3786 34.0609 11.2388 34.2809V32.1792H10.7703V37.111H11.2217V36.4186C11.3578 36.6475 11.5548 36.834 11.7908 36.9573C12.033 37.0858 12.3038 37.151 12.5779 37.147C12.8898 37.1516 13.1974 37.0738 13.4695 36.9213C13.7329 36.7739 13.9493 36.5549 14.0935 36.2896C14.2418 36.0043 14.3192 35.6875 14.3192 35.3659C14.3192 35.0443 14.2418 34.7275 14.0935 34.4421C13.949 34.1765 13.7319 33.9574 13.4676 33.8105ZM13.6762 36.0753C13.5688 36.277 13.4064 36.4441 13.2077 36.5571C13.0036 36.6668 12.7755 36.7243 12.5438 36.7243C12.3121 36.7243 12.084 36.6668 11.8799 36.5571C11.6823 36.444 11.5211 36.2768 11.4152 36.0753C11.3029 35.855 11.2444 35.6112 11.2444 35.364C11.2444 35.1167 11.3029 34.873 11.4152 34.6527C11.5206 34.4508 11.6819 34.2835 11.8799 34.1709C12.0836 34.0598 12.3118 34.0016 12.5438 34.0016C12.7758 34.0016 13.004 34.0598 13.2077 34.1709C13.4067 34.2833 13.5693 34.4506 13.6762 34.6527C13.7871 34.8734 13.8449 35.117 13.8449 35.364C13.8449 35.611 13.7871 35.8546 13.6762 36.0753Z" fill="#363A8A"/>
<path d="M17.9574 35.4495C17.9786 35.7907 17.8648 36.1265 17.6406 36.3846C17.5271 36.4988 17.3906 36.5876 17.2402 36.6452C17.0898 36.7027 16.9289 36.7277 16.7681 36.7185C16.6253 36.7278 16.4822 36.7071 16.348 36.6578C16.2137 36.6085 16.0912 36.5316 15.9885 36.432C15.7931 36.1989 15.6959 35.899 15.7172 35.5955V33.6152H15.2449V35.643C15.2212 35.8436 15.2428 36.0471 15.3082 36.2383C15.3736 36.4296 15.4811 36.6037 15.6227 36.7478C15.7643 36.892 15.9365 37.0026 16.1265 37.0713C16.3165 37.1401 16.5196 37.1654 16.7207 37.1452C16.98 37.1499 17.2364 37.0893 17.4661 36.9688C17.6791 36.8547 17.8559 36.6832 17.9764 36.4738V37.113H18.4297V33.6152H17.9574V35.4495Z" fill="#363A8A"/>
<path d="M21.5214 35.3434C21.3008 35.2778 21.0766 35.2246 20.85 35.1841C20.6704 35.155 20.4924 35.1164 20.317 35.0684C20.1973 35.0352 20.0869 34.9749 19.9945 34.892C19.9515 34.8511 19.9177 34.8016 19.8955 34.7466C19.8732 34.6916 19.863 34.6325 19.8655 34.5733C19.8646 34.4896 19.8852 34.4071 19.9254 34.3336C19.9656 34.2602 20.024 34.1984 20.095 34.1541C20.301 34.034 20.5382 33.9785 20.776 33.9948C21.1422 33.9847 21.5024 34.0895 21.806 34.2945L22.0127 33.9151C21.8411 33.806 21.6527 33.7259 21.4551 33.678C21.2334 33.6196 21.0052 33.5896 20.776 33.5888C20.4156 33.5674 20.0583 33.6654 19.7593 33.8677C19.6444 33.9487 19.5511 34.0566 19.4873 34.1818C19.4235 34.3071 19.3912 34.446 19.3932 34.5866C19.3834 34.7881 19.4513 34.9857 19.5829 35.1385C19.7038 35.2697 19.8567 35.3671 20.0267 35.4212C20.2518 35.4883 20.4804 35.5428 20.7115 35.5843C20.8835 35.6106 21.0539 35.6467 21.2217 35.6924C21.3394 35.7243 21.4488 35.7812 21.5423 35.8593C21.5843 35.8971 21.6174 35.9438 21.639 35.996C21.6607 36.0482 21.6704 36.1045 21.6675 36.1609C21.6703 36.2455 21.6505 36.3292 21.6101 36.4036C21.5698 36.4779 21.5104 36.5402 21.438 36.5839C21.2209 36.6993 20.9757 36.7513 20.7305 36.7338C20.4959 36.7349 20.2627 36.6977 20.04 36.6238C19.8382 36.5625 19.6488 36.4662 19.4805 36.3392L19.2661 36.7186C19.4469 36.8605 19.6538 36.9656 19.875 37.0278C20.1388 37.1111 20.414 37.1527 20.6906 37.1511C21.0634 37.1725 21.4336 37.0784 21.751 36.8817C21.871 36.8027 21.9688 36.6943 22.0352 36.5668C22.1016 36.4393 22.1343 36.297 22.1303 36.1534C22.1395 35.9582 22.0713 35.7674 21.9406 35.6222C21.8274 35.4946 21.683 35.3985 21.5214 35.3434Z" fill="#363A8A"/>
<path d="M23.242 32.1793C23.1966 32.1782 23.1515 32.1863 23.1094 32.2033C23.0673 32.2202 23.0292 32.2457 22.9973 32.278C22.9655 32.3079 22.9402 32.3441 22.9229 32.3842C22.9056 32.4243 22.8967 32.4676 22.8967 32.5113C22.8963 32.5559 22.905 32.6001 22.9223 32.6412C22.9395 32.6823 22.9651 32.7194 22.9973 32.7503C23.0458 32.7985 23.1075 32.8313 23.1747 32.8446C23.2418 32.8579 23.3114 32.851 23.3746 32.8248C23.4378 32.7987 23.4919 32.7544 23.5301 32.6976C23.5683 32.6408 23.5888 32.574 23.5891 32.5056C23.5893 32.4624 23.5804 32.4197 23.5631 32.3802C23.5458 32.3406 23.5204 32.3052 23.4886 32.2761C23.456 32.2442 23.4174 32.2193 23.3751 32.2027C23.3327 32.186 23.2875 32.1781 23.242 32.1793Z" fill="#363A8A"/>
<path d="M23.4752 33.6152H23.0029V37.113H23.4752V33.6152Z" fill="#363A8A"/>
<path d="M26.5726 33.5888C26.298 33.583 26.026 33.6435 25.7798 33.7652C25.5577 33.8762 25.3715 34.0479 25.243 34.2603V33.6154H24.7915V37.1131H25.2638V35.277C25.2542 35.1083 25.2783 34.9395 25.3346 34.7802C25.391 34.621 25.4785 34.4745 25.592 34.3494C25.7101 34.2349 25.8506 34.146 26.0046 34.0883C26.1587 34.0305 26.323 34.0051 26.4873 34.0137C26.6297 34.0047 26.7724 34.0256 26.9063 34.0749C27.0402 34.1242 27.1624 34.2009 27.265 34.3001C27.4609 34.5309 27.5589 34.829 27.5381 35.1309V37.1131H28.0104V35.0854C28.0257 34.8838 27.9999 34.6812 27.9347 34.4899C27.8695 34.2985 27.7662 34.1223 27.6311 33.972C27.4898 33.8397 27.3231 33.7376 27.1412 33.6717C26.9592 33.6059 26.7658 33.5776 26.5726 33.5888Z" fill="#363A8A"/>
<path d="M31.5331 33.8148C31.2686 33.6624 30.9677 33.5844 30.6624 33.5891C30.356 33.5844 30.0539 33.6624 29.788 33.8148C29.53 33.9649 29.3186 34.1835 29.1772 34.4464C29.025 34.7282 28.9479 35.0443 28.9534 35.3645C28.9483 35.6858 29.0288 36.0027 29.1867 36.2826C29.3397 36.5501 29.5644 36.7695 29.8354 36.9161C30.1267 37.0726 30.4533 37.1517 30.7838 37.1456C31.0471 37.1483 31.3082 37.0987 31.5521 36.9996C31.7772 36.9072 31.9764 36.7613 32.1325 36.5747L31.8669 36.2693C31.7371 36.4171 31.5757 36.5337 31.3946 36.6107C31.2054 36.6896 31.0021 36.729 30.7971 36.7264C30.4501 36.737 30.1118 36.6172 29.8487 36.3907C29.7234 36.2796 29.6216 36.1445 29.5496 35.9932C29.4776 35.842 29.4367 35.6779 29.4295 35.5106H32.3544V35.3645C32.3603 35.0435 32.2846 34.7264 32.1344 34.4426C31.9955 34.182 31.7875 33.9648 31.5331 33.8148ZM29.4257 35.1577C29.4443 34.8385 29.5833 34.5382 29.8146 34.3175C30.0497 34.1083 30.3534 33.9927 30.6681 33.9927C30.9828 33.9927 31.2866 34.1083 31.5217 34.3175C31.7535 34.5381 31.8932 34.8383 31.9125 35.1577H29.4257Z" fill="#363A8A"/>
<path d="M35.0915 35.3434C34.871 35.2774 34.6468 35.2242 34.42 35.1841C34.2411 35.1548 34.0638 35.1162 33.8889 35.0684C33.7693 35.0352 33.6589 34.9749 33.5665 34.892C33.5232 34.8514 33.4892 34.8018 33.4669 34.7468C33.4447 34.6918 33.4346 34.6326 33.4375 34.5733C33.4365 34.4896 33.4571 34.4071 33.4973 34.3336C33.5375 34.2602 33.596 34.1984 33.667 34.1541C33.8729 34.034 34.1101 33.9785 34.348 33.9948C34.7142 33.9847 35.0743 34.0895 35.3779 34.2945L35.5847 33.9151C35.4094 33.8051 35.2171 33.725 35.0156 33.678C34.7947 33.6195 34.5671 33.5895 34.3385 33.5888C33.9781 33.5674 33.6208 33.6654 33.3218 33.8677C33.2069 33.9487 33.1136 34.0566 33.0498 34.1818C32.986 34.3071 32.9537 34.446 32.9557 34.5866C32.9458 34.7881 33.0137 34.9857 33.1454 35.1385C33.2655 35.2697 33.4179 35.3671 33.5873 35.4212C33.8124 35.4881 34.041 35.5425 34.2721 35.5843C34.4447 35.6108 34.6156 35.6469 34.7842 35.6924C34.9015 35.7238 35.0103 35.7808 35.1029 35.8593C35.1452 35.8969 35.1786 35.9435 35.2006 35.9957C35.2226 36.0479 35.2327 36.1044 35.23 36.1609C35.2328 36.2455 35.2129 36.3292 35.1726 36.4036C35.1323 36.4779 35.0729 36.5402 35.0005 36.5839C34.7833 36.6991 34.5382 36.7511 34.2929 36.7338C34.0577 36.7347 33.8239 36.6976 33.6006 36.6238C33.4016 36.5623 33.2148 36.4667 33.0486 36.3411L32.8362 36.7205C33.0165 36.8632 33.2235 36.9683 33.4451 37.0297C33.7082 37.113 33.9828 37.1546 34.2588 37.153C34.6316 37.1749 35.002 37.0808 35.3191 36.8836C35.4393 36.8047 35.5372 36.6963 35.6036 36.5688C35.67 36.4413 35.7027 36.2989 35.6985 36.1552C35.7085 35.9617 35.644 35.7717 35.5183 35.6241C35.4033 35.4945 35.2561 35.3976 35.0915 35.3434Z" fill="#363A8A"/>
<path d="M38.3406 35.3433C38.12 35.2773 37.8958 35.2241 37.6691 35.184C37.4902 35.1548 37.3129 35.1162 37.138 35.0683C37.0182 35.0356 36.9077 34.9751 36.8155 34.8919C36.7722 34.8513 36.7383 34.8018 36.716 34.7467C36.6937 34.6917 36.6837 34.6325 36.6865 34.5732C36.6856 34.4895 36.7062 34.407 36.7464 34.3336C36.7866 34.2601 36.845 34.1983 36.9161 34.154C37.122 34.034 37.3592 33.9785 37.597 33.9947C37.9632 33.9846 38.3234 34.0894 38.627 34.2944L38.8338 33.915C38.6614 33.806 38.4724 33.7259 38.2742 33.6779C38.0532 33.6194 37.8256 33.5895 37.597 33.5888C37.2361 33.5676 36.8782 33.6656 36.5784 33.8676C36.464 33.949 36.3711 34.0569 36.3077 34.1822C36.2443 34.3074 36.2122 34.4461 36.2142 34.5865C36.2044 34.788 36.2723 34.9856 36.4039 35.1385C36.5241 35.2696 36.6764 35.367 36.8459 35.4211C37.071 35.488 37.2996 35.5425 37.5306 35.5842C37.7032 35.6108 37.8742 35.6469 38.0428 35.6924C38.16 35.7238 38.2689 35.7808 38.3614 35.8593C38.4038 35.8969 38.4372 35.9435 38.4592 35.9957C38.4812 36.0479 38.4912 36.1043 38.4885 36.1609C38.4913 36.2454 38.4715 36.3292 38.4312 36.4035C38.3908 36.4778 38.3314 36.5401 38.259 36.5839C38.0419 36.6991 37.7967 36.751 37.5515 36.7337C37.3163 36.7347 37.0825 36.6975 36.8592 36.6237C36.6602 36.5622 36.4734 36.4666 36.3072 36.3411L36.0947 36.7204C36.275 36.8631 36.482 36.9682 36.7036 37.0296C36.9668 37.1129 37.2413 37.1545 37.5174 37.1529C37.8901 37.1748 38.2605 37.0807 38.5777 36.8836C38.6978 36.8046 38.7958 36.6962 38.8622 36.5687C38.9286 36.4412 38.9612 36.2989 38.9571 36.1552C38.9644 35.9603 38.8965 35.7702 38.7674 35.6241C38.6524 35.4944 38.5051 35.3976 38.3406 35.3433Z" fill="#363A8A"/>
<path d="M45.156 36.5876L44.0388 33.6152H43.6328L42.5099 36.5876L41.4135 33.6152H40.9602L42.2766 37.113H42.7224L43.8263 34.2469L44.9303 37.113H45.376L46.6981 33.6152H46.2657L45.156 36.5876Z" fill="#363A8A"/>
<path d="M47.8817 33.6152H47.4094V37.113H47.8817V33.6152Z" fill="#363A8A"/>
<path d="M47.6485 32.1793C47.6031 32.1782 47.558 32.1863 47.5159 32.2033C47.4738 32.2202 47.4357 32.2457 47.4038 32.278C47.372 32.3079 47.3467 32.3441 47.3294 32.3842C47.3121 32.4243 47.3032 32.4676 47.3032 32.5113C47.3028 32.5559 47.3115 32.6001 47.3287 32.6412C47.346 32.6823 47.3716 32.7194 47.4038 32.7503C47.4523 32.7985 47.514 32.8313 47.5812 32.8446C47.6483 32.8579 47.7179 32.851 47.7811 32.8248C47.8443 32.7987 47.8984 32.7544 47.9366 32.6976C47.9748 32.6408 47.9953 32.574 47.9956 32.5056C47.9958 32.4624 47.9869 32.4197 47.9696 32.3802C47.9523 32.3406 47.9269 32.3052 47.8951 32.2761C47.8625 32.2442 47.8239 32.2193 47.7816 32.2027C47.7392 32.186 47.694 32.1781 47.6485 32.1793Z" fill="#363A8A"/>
<path d="M50.6455 36.6938C50.5543 36.7241 50.4589 36.7395 50.3629 36.7393C50.2809 36.7449 50.1986 36.7335 50.1212 36.7057C50.0438 36.678 49.9731 36.6345 49.9133 36.5781C49.8013 36.4458 49.7455 36.2749 49.7578 36.102V34.0155H50.8219V33.6171H49.7578V32.8584H49.2855V33.6171H48.6538V34.0155H49.2779V36.1304C49.2682 36.2683 49.2868 36.4067 49.3325 36.5372C49.3781 36.6676 49.4499 36.7874 49.5434 36.8892C49.6457 36.9819 49.7655 37.0533 49.8959 37.0989C50.0262 37.1445 50.1644 37.1635 50.3022 37.1547C50.4405 37.1552 50.5781 37.1341 50.71 37.0921C50.8326 37.054 50.9453 36.9892 51.04 36.9025L50.8731 36.5648C50.8061 36.6218 50.7288 36.6656 50.6455 36.6938Z" fill="#363A8A"/>
<path d="M53.6805 33.5885C53.4118 33.583 53.1455 33.6402 52.9028 33.7555C52.685 33.8591 52.5009 34.0222 52.3717 34.2259V32.1792H51.8975V37.111H52.3698V35.2767C52.3602 35.1081 52.3843 34.9392 52.4406 34.78C52.4969 34.6207 52.5844 34.4743 52.6979 34.3492C52.8161 34.2347 52.9566 34.1458 53.1106 34.088C53.2646 34.0303 53.4289 34.0049 53.5932 34.0134C53.7356 34.0047 53.8783 34.0257 54.0122 34.075C54.146 34.1243 54.2682 34.2009 54.3709 34.2999C54.5668 34.5306 54.6648 34.8287 54.6441 35.1307V37.1129H55.1164V35.0851C55.1305 34.8827 55.103 34.6796 55.0359 34.4881C54.9687 34.2967 54.8631 34.1209 54.7256 33.9717C54.5862 33.8408 54.4217 33.7393 54.2422 33.6735C54.0626 33.6077 53.8715 33.5788 53.6805 33.5885Z" fill="#363A8A"/>
<path d="M60.82 35.4495C60.8406 35.7909 60.7261 36.1268 60.5013 36.3846C60.3875 36.4986 60.251 36.5874 60.1007 36.6452C59.9504 36.703 59.7896 36.7286 59.6287 36.7204C59.4863 36.7295 59.3435 36.7088 59.2096 36.6595C59.0756 36.6101 58.9535 36.5333 58.851 36.4339C58.6548 36.2013 58.5574 35.901 58.5798 35.5974V33.6152H58.1075V35.643C58.0838 35.8436 58.1054 36.0471 58.1708 36.2383C58.2362 36.4296 58.3436 36.6037 58.4852 36.7478C58.6269 36.892 58.799 37.0026 58.9891 37.0713C59.1791 37.1401 59.3821 37.1654 59.5832 37.1452C59.842 37.1502 60.0978 37.0895 60.3268 36.9688C60.5407 36.8553 60.7182 36.6837 60.8389 36.4738V37.113H61.2923V33.6152H60.82V35.4495Z" fill="#363A8A"/>
<path d="M64.8148 35.6165C64.6974 35.4888 64.5481 35.3946 64.3823 35.3434C64.1618 35.2774 63.9376 35.2242 63.7109 35.1841C63.5319 35.1548 63.3546 35.1162 63.1797 35.0684C63.0601 35.0352 62.9497 34.9749 62.8573 34.892C62.814 34.8514 62.78 34.8018 62.7577 34.7468C62.7355 34.6918 62.7254 34.6326 62.7283 34.5733C62.7273 34.4896 62.748 34.4071 62.7882 34.3336C62.8284 34.2602 62.8868 34.1984 62.9578 34.1541C63.1637 34.034 63.401 33.9785 63.6388 33.9948C64.005 33.9847 64.3651 34.0895 64.6687 34.2945L64.8755 33.9151C64.7033 33.8057 64.5143 33.7256 64.3159 33.678C64.0949 33.6195 63.8674 33.5895 63.6388 33.5888C63.2784 33.5674 62.9211 33.6654 62.6221 33.8677C62.5072 33.9487 62.4139 34.0566 62.3501 34.1818C62.2863 34.3071 62.254 34.446 62.256 34.5866C62.2461 34.7881 62.314 34.9857 62.4457 35.1385C62.5658 35.2697 62.7182 35.3671 62.8876 35.4212C63.1127 35.4881 63.3413 35.5425 63.5724 35.5843C63.745 35.6108 63.9159 35.6469 64.0845 35.6924C64.2018 35.7238 64.3106 35.7808 64.4032 35.8593C64.4455 35.8969 64.4789 35.9435 64.5009 35.9957C64.5229 36.0479 64.533 36.1044 64.5303 36.1609C64.5331 36.2455 64.5132 36.3292 64.4729 36.4036C64.4326 36.4779 64.3731 36.5402 64.3008 36.5839C64.0836 36.6991 63.8385 36.7511 63.5932 36.7338C63.358 36.7347 63.1242 36.6976 62.9009 36.6238C62.7019 36.5623 62.5151 36.4667 62.3489 36.3411L62.1365 36.7205C62.3168 36.8632 62.5238 36.9683 62.7454 37.0297C63.0085 37.113 63.2831 37.1546 63.5591 37.153C63.9319 37.1749 64.3023 37.0808 64.6194 36.8836C64.7396 36.8047 64.8375 36.6963 64.9039 36.5688C64.9703 36.4413 65.003 36.2989 64.9988 36.1552C65.0097 35.9586 64.9437 35.7654 64.8148 35.6165Z" fill="#363A8A"/>
</svg>
